\select@language {polish}
\select@language {polish}
\contentsline {chapter}{\numberline {1}Wst\IeC {\k e}p}{2}
\contentsline {section}{\numberline {1.1}Definicje}{2}
\contentsline {chapter}{\numberline {2}Projekt}{4}
\contentsline {section}{\numberline {2.1}\IeC {\'Z}r\IeC {\'o}d\IeC {\l }a}{4}
\contentsline {section}{\numberline {2.2}\IeC {\'S}rodowisko}{5}
\contentsline {section}{\numberline {2.3}Dzia\IeC {\l }anie}{5}
\contentsline {section}{\numberline {2.4}Sprz\IeC {\k e}t}{5}
\contentsline {chapter}{\numberline {3}Testy}{6}
\contentsline {section}{\numberline {3.1}Testy poprawno\IeC {\'s}ciowe}{6}
\contentsline {section}{\numberline {3.2}Testy wydajno\IeC {\'s}ciowe}{6}
\contentsline {subsection}{\numberline {3.2.1}Dane losowe}{7}
\contentsline {subsection}{\numberline {3.2.2}Dane z Codeforces}{8}
\contentsline {chapter}{\numberline {4}Podsumowanie}{9}
