\relax 
\catcode `"\active 
\select@language{polish}
\@writefile{toc}{\select@language{polish}}
\@writefile{lof}{\select@language{polish}}
\@writefile{lot}{\select@language{polish}}
\select@language{polish}
\@writefile{toc}{\select@language{polish}}
\@writefile{lof}{\select@language{polish}}
\@writefile{lot}{\select@language{polish}}
\@writefile{toc}{\contentsline {chapter}{\numberline {1}Wst\IeC {\k e}p}{2}}
\@writefile{lof}{\addvspace {10\p@ }}
\@writefile{lot}{\addvspace {10\p@ }}
\@writefile{toc}{\contentsline {section}{\numberline {1.1}Definicje}{2}}
\@writefile{toc}{\contentsline {chapter}{\numberline {2}Projekt}{4}}
\@writefile{lof}{\addvspace {10\p@ }}
\@writefile{lot}{\addvspace {10\p@ }}
\@writefile{toc}{\contentsline {section}{\numberline {2.1}\IeC {\'Z}r\IeC {\'o}d\IeC {\l }a}{4}}
\@writefile{toc}{\contentsline {section}{\numberline {2.2}\IeC {\'S}rodowisko}{5}}
\@writefile{toc}{\contentsline {section}{\numberline {2.3}Dzia\IeC {\l }anie}{5}}
\@writefile{toc}{\contentsline {section}{\numberline {2.4}Sprz\IeC {\k e}t}{5}}
\@writefile{toc}{\contentsline {chapter}{\numberline {3}Testy}{6}}
\@writefile{lof}{\addvspace {10\p@ }}
\@writefile{lot}{\addvspace {10\p@ }}
\@writefile{toc}{\contentsline {section}{\numberline {3.1}Testy poprawno\IeC {\'s}ciowe}{6}}
\@writefile{toc}{\contentsline {section}{\numberline {3.2}Testy wydajno\IeC {\'s}ciowe}{6}}
\@writefile{toc}{\contentsline {subsection}{\numberline {3.2.1}Dane losowe}{7}}
\@writefile{lot}{\contentsline {table}{\numberline {3.1}{\ignorespaces Operacja wstawiania\relax }}{7}}
\@writefile{lot}{\contentsline {table}{\numberline {3.2}{\ignorespaces Operacja usuwania\relax }}{7}}
\@writefile{lot}{\contentsline {table}{\numberline {3.3}{\ignorespaces Operacja wyszukiwania\relax }}{7}}
\@writefile{toc}{\contentsline {subsection}{\numberline {3.2.2}Dane z Codeforces}{8}}
\@writefile{lot}{\contentsline {table}{\numberline {3.4}{\ignorespaces Konstrukcja rankingu\relax }}{8}}
\@writefile{lot}{\contentsline {table}{\numberline {3.5}{\ignorespaces Operacja wyszukiwania\relax }}{8}}
\@writefile{toc}{\contentsline {chapter}{\numberline {4}Podsumowanie}{9}}
\@writefile{lof}{\addvspace {10\p@ }}
\@writefile{lot}{\addvspace {10\p@ }}
